{
  "images" : [
    {
      "orientation" : "portrait",
      "idiom" : "iphone",
      "filename" : "640-960.png",
      "extent" : "full-screen",
      "minimum-system-version" : "7.0",
      "scale" : "2x"
    },
    {
      "extent" : "full-screen",
      "idiom" : "iphone",
      "subtype" : "retina4",
      "filename" : "640-1136.png",
      "minimum-system-version" : "7.0",
      "orientation" : "portrait",
      "scale" : "2x"
    },
    {
      "extent" : "full-screen",
      "idiom" : "tv",
      "filename" : "1080-1920.png",
      "minimum-system-version" : "9.0",
      "orientation" : "landscape",
      "unassigned" : true,
      "scale" : "1x"
    },
    {
      "extent" : "full-screen",
      "idiom" : "iphone",
      "subtype" : "667h",
      "filename" : "750-1334 (2).png",
      "minimum-system-version" : "8.0",
      "orientation" : "portrait",
      "unassigned" : true,
      "scale" : "2x"
    },
    {
      "extent" : "full-screen",
      "idiom" : "iphone",
      "filename" : "640-960 (2).png",
      "minimum-system-version" : "7.0",
      "orientation" : "portrait",
      "unassigned" : true,
      "scale" : "2x"
    },
    {
      "extent" : "full-screen",
      "idiom" : "iphone",
      "subtype" : "retina4",
      "filename" : "640-1136 (2).png",
      "minimum-system-version" : "7.0",
      "orientation" : "portrait",
      "unassigned" : true,
      "scale" : "2x"
    },
    {
      "orientation" : "portrait",
      "idiom" : "iphone",
      "filename" : "640-960 (2)-1.png",
      "extent" : "full-screen",
      "unassigned" : true,
      "scale" : "2x"
    },
    {
      "extent" : "full-screen",
      "idiom" : "iphone",
      "subtype" : "retina4",
      "filename" : "640-1136 (2)-1.png",
      "orientation" : "portrait",
      "unassigned" : true,
      "scale" : "2x"
    }
  ],
  "info" : {
    "version" : 1,
    "author" : "xcode"
  }
}